{
  "images" : [
    {
      "idiom" : "universal",
      "filename" : "125a2be1-de47-4fb5-84bb-df0f3c94c8f7.png",
      "scale" : "1x"
    },
    {
      "idiom" : "universal",
      "scale" : "2x"
    },
    {
      "idiom" : "universal",
      "scale" : "3x"
    }
  ],
  "info" : {
    "version" : 1,
    "author" : "xcode"
  }
}